9 多群の平均値差の検定 – 心理学統計実習
…
# Long型に整形
X <- X %>%
  rowid_to_column("ID") %>%
  pivot_longer(-ID) %>%
  print()

# A tibble: 30 × 3
      ID name  value
   <int> <chr> <dbl>
 1     1 V1    10.6 
 2     1 V2     9.25
 3     1 V3     7.68
 4     2 V1    12.2 
 5     2 V2    10.2 
 6     2 V3     9.87
 7     3 V1     8.58
 8     3 V2    11.1 
 9     3 V3     8.83
10     4 V1     9.57
# ℹ 20 more rows
…
