3 Data Wrangling in R – Exercises in Psychological Statistics
…
Fukuoka
Night
rain

The information content is identical, but locating the “Osaka, evening” record requires only row selection — easier for a machine to handle. This second layout is the long format (or “vertical” layout); the original is the wide format (“horizontal” layout).

One advantage of the long format is the handling of missing values. In a wide table, dropping a whole row or column when only one cell is missing is wasteful; targeting both a row and a column for partial deletion is technically awkward. In a long table, the missing record is a single row to be dropped.

The tidyverse (specifically tidyr) provides functions for moving between long and wide layouts. First, pivot_longer() converts wide to long:

iris %>% pivot_longer(-Species)

# A tibble: 600 × 3
   Species name         value
   <fct>   <chr>        <dbl>
 1 setosa  Sepal.Length   5.1
 2 setosa  Sepal.Width    3.5
 3 setosa  Petal.Length   1.4
 4 setosa  Petal.Width    0.2
 5 setosa  Sepal.Length   4.9
 6 setosa  Sepal.Width    3  
 7 setosa  Petal.Length   1.4
 8 setosa  Petal.Width    0.2
 9 setosa  Sepal.Length   4.7
10 setosa  Sepal.Width    3.2
# ℹ 590 more rows

Here we pivot the iris data around Species: all other variables are stacked into a name/value pair.

Conversely, pivot_wider() reshapes long back to wide:

iris %>%
  select(-Species) %>%
  rowid_to_column("ID") %>%
  pivot_longer(-ID) %>%
  pivot_wider(id_cols = ID, names_from = name, values_from = value)

# A tibble: 150 × 5
      ID Sepal.Length Sepal.Width Petal.Length Petal.Width
   <int>        <dbl>       <dbl>        <dbl>       <dbl>
 1     1          5.1         3.5          1.4         0.2
 2     2          4.9         3            1.4         0.2
 3     3          4.7         3.2          1.3         0.2
 4     4          4.6         3.1          1.5         0.2
 5     5          5           3.6          1.4         0.2
 6     6          5.4         3.9          1.7         0.4
 7     7          4.6         3.4          1.4         0.3
 8     8          5           3.4          1.5         0.2
 9     9          4.4         2.9          1.4         0.2
10    10          4.9         3.1          1.5         0.1
# ℹ 140 more rows

Here Species is dropped and a per-row ID column is added. With ID as the key, the variable names come from name and the values from value, restoring the wide layout.2

3.8 Grouping and summary statistics

Once data are in long format, filtering by variable or case is easy. To compute summary statistics for each group of a categorical variable, combine group_by() with summarise() (or reframe()). An example:

iris %>% group_by(Species)

# A tibble: 150 × 5
# Groups:   Species [3]
   Sepal.Length Sepal.Width Petal.Length Petal.Width Species
          <dbl>       <dbl>        <dbl>       <dbl> <fct>  
 1          5.1         3.5          1.4         0.2 setosa 
 2          4.9         3            1.4         0.2 setosa 
 3          4.7         3.2          1.3         0.2 setosa 
 4          4.6         3.1          1.5         0.2 setosa 
 5          5           3.6          1.4         0.2 setosa 
 6          5.4         3.9          1.7         0.4 setosa 
 7          4.6         3.4          1.4         0.3 setosa 
 8          5           3.4          1.5         0.2 setosa 
 9          4.4         2.9          1.4         0.2 setosa 
10          4.9         3.1          1.5         0.1 setosa 
# ℹ 140 more rows
…
