9 Multi-group Tests of Mean Differences – Exercises in Psychological Statistics
…
# reshape to long
X <- X %>%
  rowid_to_column("ID") %>%
  pivot_longer(-ID) %>%
  print()

# A tibble: 30 × 3
      ID name  value
   <int> <chr> <dbl>
 1     1 V1    10.6 
 2     1 V2     9.42
 3     1 V3     7.49
 4     2 V1    12.4 
 5     2 V2    11.2 
 6     2 V3     8.81
 7     3 V1     8.60
 8     3 V2    11.2 
 9     3 V3     8.72
10     4 V1     9.39
# ℹ 20 more rows
…
