3 Rによるデータハンドリング – 心理学統計実習
…
福岡
深夜
雨

このデータが表す情報は同じだが，大阪・夕方の条件を絞り込むことは行選択だけでよく，計算機にとって使いやすい。この形式をロング型データ，あるいは「縦持ち」データという。これに対して前者の形式をワイド型データ，あるいは「横持ち」データという。

ロング型データにする利点のひとつは，欠測値の扱いである。ワイド型データで欠測値が含まれる場合，その行あるいは列全体を削除するのは無駄が多く，かと言って行・列両方を特定するのは技術的にも面倒である。これに対しロング型データの場合は，当該行を絞り込んで削除するだけで良い。

tidyverseには(正確にはtidyrには)，このようなロング型データ，ワイド型データの変換関数が用意されている。 実例とともに見てみよう。まずはワイド型データをロング型に変換するpivot_longerである。

Code

iris %>% pivot_longer(-Species)

# A tibble: 600 × 3
   Species name         value
   <fct>   <chr>        <dbl>
 1 setosa  Sepal.Length   5.1
 2 setosa  Sepal.Width    3.5
 3 setosa  Petal.Length   1.4
 4 setosa  Petal.Width    0.2
 5 setosa  Sepal.Length   4.9
 6 setosa  Sepal.Width    3  
 7 setosa  Petal.Length   1.4
 8 setosa  Petal.Width    0.2
 9 setosa  Sepal.Length   4.7
10 setosa  Sepal.Width    3.2
# ℹ 590 more rows

ここでは元のirisデータについて，Speciesセルを軸として，それ以外の変数名と値をname,valueに割り当てて縦持ちにしている。

逆に，ロング型のデータをワイド型に持ち替えるには，pivot_widerを使う。 実例は以下の通りである。

Code

iris %>%
  select(-Species) %>%
  rowid_to_column("ID") %>%
  pivot_longer(-ID) %>%
  pivot_wider(id_cols = ID, names_from = name, values_from = value)

# A tibble: 150 × 5
      ID Sepal.Length Sepal.Width Petal.Length Petal.Width
   <int>        <dbl>       <dbl>        <dbl>       <dbl>
 1     1          5.1         3.5          1.4         0.2
 2     2          4.9         3            1.4         0.2
 3     3          4.7         3.2          1.3         0.2
 4     4          4.6         3.1          1.5         0.2
 5     5          5           3.6          1.4         0.2
 6     6          5.4         3.9          1.7         0.4
 7     7          4.6         3.4          1.4         0.3
 8     8          5           3.4          1.5         0.2
 9     9          4.4         2.9          1.4         0.2
10    10          4.9         3.1          1.5         0.1
# ℹ 140 more rows

今回はSpecies変数を除外し，別途ID変数として行番号を変数に付与した。この行番号をキーに，変数名はnames列から，その値はvalue列から持ってくることでロング型をワイド型に変えている2。

3.8 グループ化と要約統計量

データをロング型にすることで，変数やケースの絞り込みが容易になる。その上で，ある群ごとに要約した統計量を算出したい場合は，group_by変数によるグループ化と，summariseあるいはreframeがある。実例を通して確認しよう。

Code

iris %>% group_by(Species)

# A tibble: 150 × 5
# Groups:   Species [3]
   Sepal.Length Sepal.Width Petal.Length Petal.Width Species
          <dbl>       <dbl>        <dbl>       <dbl> <fct>  
 1          5.1         3.5          1.4         0.2 setosa 
 2          4.9         3            1.4         0.2 setosa 
 3          4.7         3.2          1.3         0.2 setosa 
 4          4.6         3.1          1.5         0.2 setosa 
 5          5           3.6          1.4         0.2 setosa 
 6          5.4         3.9          1.7         0.4 setosa 
 7          4.6         3.4          1.4         0.3 setosa 
 8          5           3.4          1.5         0.2 setosa 
 9          4.4         2.9          1.4         0.2 setosa 
10          4.9         3.1          1.5         0.1 setosa 
# ℹ 140 more rows
…
