Introduction to Psychological Statistics - 3 Data Handling with R
…
Fukuoka | Evening | Cloudy |

Fukuoka | Late Night | Rain |

: Long Format Data

While the information represented by this data is the same, narrowing down to the conditions of ‘Osaka’ and ‘evening’ could be done just by selecting rows, which is easy for computers. This format is referred to as ‘long format’ data, or ‘stacked’ data. Conversely, the earlier format is called ‘wide format’ data or ‘unstacked’ data.

One of the advantages of using long-format data is how it deals with missing values. When there are missing values in wide-format data, it’s often wasteful to delete the entire row or column. At the same time, it’s technically cumbersome to identify both rows and columns. In contrast, with long-format data, it’s sufficient to simply filter out and remove the relevant rows.

The tidyverse (more specifically, tidyr) includes built-in functions for converting between these long-format and wide-format data types. Let’s understand this concept with an example. First up is pivot_longer, which is used to convert wide-format data into long-format.

iris %>% pivot_longer(-Species)

# A tibble: 600 × 3
   Species name         value
   <fct>   <chr>        <dbl>
 1 setosa  Sepal.Length   5.1
 2 setosa  Sepal.Width    3.5
 3 setosa  Petal.Length   1.4
 4 setosa  Petal.Width    0.2
 5 setosa  Sepal.Length   4.9
 6 setosa  Sepal.Width    3  
 7 setosa  Petal.Length   1.4
 8 setosa  Petal.Width    0.2
 9 setosa  Sepal.Length   4.7
10 setosa  Sepal.Width    3.2
# ℹ 590 more rows

Here, we are reshaping the original iris data. We assign the Species cell as the key, and assign the rest of the variable names and their values to name and value, thus converting the data to long format.

Conversely, to switch from long-form data to wide-form data, use pivot_wider.

The example is as follows.

iris %>%
  select(-Species) %>%
  rowid_to_column("ID") %>%
  pivot_longer(-ID) %>%
  pivot_wider(id_cols = ID, names_from = name, values_from = value)

# A tibble: 150 × 5
      ID Sepal.Length Sepal.Width Petal.Length Petal.Width
   <int>        <dbl>       <dbl>        <dbl>       <dbl>
 1     1          5.1         3.5          1.4         0.2
 2     2          4.9         3            1.4         0.2
 3     3          4.7         3.2          1.3         0.2
 4     4          4.6         3.1          1.5         0.2
 5     5          5           3.6          1.4         0.2
 6     6          5.4         3.9          1.7         0.4
 7     7          4.6         3.4          1.4         0.3
 8     8          5           3.4          1.5         0.2
 9     9          4.4         2.9          1.4         0.2
10    10          4.9         3.1          1.5         0.1
# ℹ 140 more rows

This time, we removed the Species variable and separately assigned row numbers as the ID variable. Using this row number as a key, we transformed the long format into a wide one by getting the variable names from the names column and their corresponding values from the value column2.

3.8 Grouping and Summary Statistics

By transforming the data into long format, it becomes easier to narrow down variables and cases. Then, if you want to calculate summary statistics for each group, you can use group_by to group variables, and summarise or reframe. Let’s explore this through practical examples.

iris %>% group_by(Species)

# A tibble: 150 × 5
# Groups:   Species [3]
   Sepal.Length Sepal.Width Petal.Length Petal.Width Species
          <dbl>       <dbl>        <dbl>       <dbl> <fct>  
 1          5.1         3.5          1.4         0.2 setosa 
 2          4.9         3            1.4         0.2 setosa 
 3          4.7         3.2          1.3         0.2 setosa 
 4          4.6         3.1          1.5         0.2 setosa 
 5          5           3.6          1.4         0.2 setosa 
 6          5.4         3.9          1.7         0.4 setosa 
 7          4.6         3.4          1.4         0.3 setosa 
 8          5           3.4          1.5         0.2 setosa 
 9          4.4         2.9          1.4         0.2 setosa 
10          4.9         3.1          1.5         0.1 setosa 
# ℹ 140 more rows
…
